R로 하는 텍스트 데이터 전처리 방법
…
---
### 파이프 연산자(%>%)

flights 데이터에 파이프 연산자 사용예 1

```r
flights %>%
  group_by(year,month,day) %>%
  summarise(delay = mean(dep_delay, na.rm = TRUE))
```

```
## # A tibble: 365 x 4
## # Groups:   year, month [12]
##     year month   day delay
##    <int> <int> <int> <dbl>
##  1  2013     1     1 11.5 
##  2  2013     1     2 13.9 
##  3  2013     1     3 11.0 
##  4  2013     1     4  8.95
##  5  2013     1     5  5.73
##  6  2013     1     6  7.15
##  7  2013     1     7  5.42
##  8  2013     1     8  2.55
##  9  2013     1     9  2.28
## 10  2013     1    10  2.84
## # ... with 355 more rows
```
…
```
## # A tibble: 131,106 x 5
## # Groups:   dest [77]
##    month   day dest  arr_delay prop_delay
##    <int> <int> <chr>     <dbl>      <dbl>
##  1     1     1 IAH          11  0.000111 
##  2     1     1 IAH          20  0.000201 
##  3     1     1 MIA          33  0.000235 
##  4     1     1 ORD          12  0.0000424
##  5     1     1 FLL          19  0.0000938
##  6     1     1 ORD           8  0.0000283
##  7     1     1 LAX           7  0.0000344
##  8     1     1 DFW          31  0.000282 
##  9     1     1 ATL          12  0.0000400
## 10     1     1 DTW          16  0.000116 
## # ... with 131,096 more rows
```
…
### 열 방향: 선택 - select()

데이터에서 컬럼을 선택하여 사용함. select()는 선언된 순서대로 컬럼을 정렬함
.pull-left[
```{}
select(flights, year, month, day)
```
]
.pull-right[

```
## # A tibble: 336,776 x 3
##     year month   day
##    <int> <int> <int>
##  1  2013     1     1
##  2  2013     1     1
##  3  2013     1     1
##  4  2013     1     1
##  5  2013     1     1
##  6  2013     1     1
##  7  2013     1     1
##  8  2013     1     1
##  9  2013     1     1
## 10  2013     1     1
## # ... with 336,766 more rows
```
]

---

### 열 방향: 계산 - mutate()

출력 편의를 위해 일부 데이터만 사용

```r
flights_sml <- select(flights, year:day, ends_with("delay"), distance, air_time)
flights_sml
```

```
## # A tibble: 336,776 x 7
##     year month   day dep_delay arr_delay distance air_time
##    <int> <int> <int>     <dbl>     <dbl>    <dbl>    <dbl>
##  1  2013     1     1         2        11     1400      227
##  2  2013     1     1         4        20     1416      227
##  3  2013     1     1         2        33     1089      160
##  4  2013     1     1        -1       -18     1576      183
##  5  2013     1     1        -6       -25      762      116
##  6  2013     1     1        -4        12      719      150
##  7  2013     1     1        -5        19     1065      158
##  8  2013     1     1        -3       -14      229       53
##  9  2013     1     1        -3        -8      944      140
## 10  2013     1     1        -2         8      733      138
## # ... with 336,766 more rows
```
---

### 열 방향: 계산 - mutate()

각 컬럼간의 계산으로 새로운 열을 만들 수 있음

```r
mutate(flights_sml,
       gain = arr_delay - dep_delay,
       speed = distance / air_time * 60
)
```

```
## # A tibble: 336,776 x 9
##     year month   day dep_delay arr_delay distance air_time  gain speed
##    <int> <int> <int>     <dbl>     <dbl>    <dbl>    <dbl> <dbl> <dbl>
##  1  2013     1     1         2        11     1400      227     9  370.
##  2  2013     1     1         4        20     1416      227    16  374.
##  3  2013     1     1         2        33     1089      160    31  408.
##  4  2013     1     1        -1       -18     1576      183   -17  517.
##  5  2013     1     1        -6       -25      762      116   -19  394.
##  6  2013     1     1        -4        12      719      150    16  288.
##  7  2013     1     1        -5        19     1065      158    24  404.
##  8  2013     1     1        -3       -14      229       53   -11  259.
##  9  2013     1     1        -3        -8      944      140    -5  405.
## 10  2013     1     1        -2         8      733      138    10  319.
## # ... with 336,766 more rows
```

---

### 행 방향: 조건 - filter()

filter()는 데이터 중에 조건에 해당하는 일부 데이터만 필터해서 사용. 논리 연산자와 결합하여 많이 사용하며 [이곳](https://mrchypark.github.io/r/operator/%EB%85%BC%EB%A6%AC-%EC%97%B0%EC%82%B0%EC%9E%90-%EC%A0%95%EB%A6%AC.html)에서 추가적으로 내용을 확인할 수 있음

```r
filter(flights, month == 1)
```

```
## # A tibble: 27,004 x 19
##     year month   day dep_time sched_dep_time dep_delay arr_time
##    <int> <int> <int>    <int>          <int>     <dbl>    <int>
##  1  2013     1     1      517            515         2      830
##  2  2013     1     1      533            529         4      850
##  3  2013     1     1      542            540         2      923
##  4  2013     1     1      544            545        -1     1004
##  5  2013     1     1      554            600        -6      812
##  6  2013     1     1      554            558        -4      740
##  7  2013     1     1      555            600        -5      913
##  8  2013     1     1      557            600        -3      709
##  9  2013     1     1      557            600        -3      838
## 10  2013     1     1      558            600        -2      753
## # ... with 26,994 more rows, and 12 more variables: sched_arr_time <int>,
## #   arr_delay <dbl>, carrier <chr>, flight <int>, tailnum <chr>,
## #   origin <chr>, dest <chr>, air_time <dbl>, distance <dbl>, hour <dbl>,
## #   minute <dbl>, time_hour <dttm>
```
…
---

### 행 방향: 추가 - bind_rows()

bind_rows()는 컬럼 이름을 기준으로 같은 컬럼 밑에 데이터를 붙여서 **묶어줌**. 

```r
bind_rows(feb, dec)
```

```
## # A tibble: 53,086 x 19
##     year month   day dep_time sched_dep_time dep_delay arr_time
##    <int> <int> <int>    <int>          <int>     <dbl>    <int>
##  1  2013     2     1      456            500        -4      652
##  2  2013     2     1      520            525        -5      816
##  3  2013     2     1      527            530        -3      837
##  4  2013     2     1      532            540        -8     1007
##  5  2013     2     1      540            540         0      859
##  6  2013     2     1      552            600        -8      714
##  7  2013     2     1      552            600        -8      919
##  8  2013     2     1      552            600        -8      655
##  9  2013     2     1      553            600        -7      833
## 10  2013     2     1      553            600        -7      821
## # ... with 53,076 more rows, and 12 more variables: sched_arr_time <int>,
## #   arr_delay <dbl>, carrier <chr>, flight <int>, tailnum <chr>,
## #   origin <chr>, dest <chr>, air_time <dbl>, distance <dbl>, hour <dbl>,
## #   minute <dbl>, time_hour <dttm>
```

---

### 행 방향: 정렬 - arrange()

arrange()는 지정되는 컬럼 순으로 오름차순 정렬해주는 함수

```r
arrange(flights, dep_delay)
```

```
## # A tibble: 336,776 x 19
##     year month   day dep_time sched_dep_time dep_delay arr_time
##    <int> <int> <int>    <int>          <int>     <dbl>    <int>
##  1  2013    12     7     2040           2123       -43       40
##  2  2013     2     3     2022           2055       -33     2240
##  3  2013    11    10     1408           1440       -32     1549
##  4  2013     1    11     1900           1930       -30     2233
##  5  2013     1    29     1703           1730       -27     1947
##  6  2013     8     9      729            755       -26     1002
##  7  2013    10    23     1907           1932       -25     2143
##  8  2013     3    30     2030           2055       -25     2213
##  9  2013     3     2     1431           1455       -24     1601
## 10  2013     5     5      934            958       -24     1225
## # ... with 336,766 more rows, and 12 more variables: sched_arr_time <int>,
## #   arr_delay <dbl>, carrier <chr>, flight <int>, tailnum <chr>,
## #   origin <chr>, dest <chr>, air_time <dbl>, distance <dbl>, hour <dbl>,
## #   minute <dbl>, time_hour <dttm>
```
…
---

### 그룹 계산 - group_by() + summarise()

group_by()는 데이터에 **지정한 컬럼별**이라는 추가 조건을 지정하는 기능을 수행

```r
flights_g<-group_by(flights, month)
flights_g
```

```
## # A tibble: 336,776 x 19
## # Groups:   month [12]
##     year month   day dep_time sched_dep_time dep_delay arr_time
##    <int> <int> <int>    <int>          <int>     <dbl>    <int>
##  1  2013     1     1      517            515         2      830
##  2  2013     1     1      533            529         4      850
##  3  2013     1     1      542            540         2      923
##  4  2013     1     1      544            545        -1     1004
##  5  2013     1     1      554            600        -6      812
##  6  2013     1     1      554            558        -4      740
##  7  2013     1     1      555            600        -5      913
##  8  2013     1     1      557            600        -3      709
##  9  2013     1     1      557            600        -3      838
## 10  2013     1     1      558            600        -2      753
## # ... with 336,766 more rows, and 12 more variables: sched_arr_time <int>,
## #   arr_delay <dbl>, carrier <chr>, flight <int>, tailnum <chr>,
## #   origin <chr>, dest <chr>, air_time <dbl>, distance <dbl>, hour <dbl>,
## #   minute <dbl>, time_hour <dttm>
```
…
### 열 결합(Join) - left_join()

select()를 사용하여 데이터 준비

```r
flights2 <- select(flights, year:day, hour, origin, dest, tailnum, carrier)
flights2
```

```
## # A tibble: 336,776 x 8
##     year month   day  hour origin dest  tailnum carrier
##    <int> <int> <int> <dbl> <chr>  <chr> <chr>   <chr>  
##  1  2013     1     1     5 EWR    IAH   N14228  UA     
##  2  2013     1     1     5 LGA    IAH   N24211  UA     
##  3  2013     1     1     5 JFK    MIA   N619AA  AA     
##  4  2013     1     1     5 JFK    BQN   N804JB  B6     
##  5  2013     1     1     6 LGA    ATL   N668DN  DL     
##  6  2013     1     1     5 EWR    ORD   N39463  UA     
##  7  2013     1     1     6 EWR    FLL   N516JB  B6     
##  8  2013     1     1     6 LGA    IAD   N829AS  EV     
##  9  2013     1     1     6 JFK    MCO   N593JB  B6     
## 10  2013     1     1     6 LGA    ORD   N3ALAA  AA     
## # ... with 336,766 more rows
```
---

### 열 결합(Join) - left_join()

left_join()은 왼쪽 데이터를 기준으로 하고, by로 지정된 컬럼이 같은 데이터임을 식별하는 key로 지정하여 오른쪽 데이터를 왼쪽 데이터에 결합하는 함수

```r
left_join(flights2, airlines, by = "carrier")
```

```
## # A tibble: 336,776 x 9
##     year month   day  hour origin dest  tailnum carrier name               
##    <int> <int> <int> <dbl> <chr>  <chr> <chr>   <chr>   <chr>              
##  1  2013     1     1     5 EWR    IAH   N14228  UA      United Air Lines I~
##  2  2013     1     1     5 LGA    IAH   N24211  UA      United Air Lines I~
##  3  2013     1     1     5 JFK    MIA   N619AA  AA      American Airlines ~
##  4  2013     1     1     5 JFK    BQN   N804JB  B6      JetBlue Airways    
##  5  2013     1     1     6 LGA    ATL   N668DN  DL      Delta Air Lines In~
##  6  2013     1     1     5 EWR    ORD   N39463  UA      United Air Lines I~
##  7  2013     1     1     6 EWR    FLL   N516JB  B6      JetBlue Airways    
##  8  2013     1     1     6 LGA    IAD   N829AS  EV      ExpressJet Airline~
##  9  2013     1     1     6 JFK    MCO   N593JB  B6      JetBlue Airways    
## 10  2013     1     1     6 LGA    ORD   N3ALAA  AA      American Airlines ~
## # ... with 336,766 more rows
```
…
tar <- "https://news.naver.com/main/read.nhn?mode=LSD&mid=shm&sid1=100&oid=005&aid=0001236313"
getAllComment(tar) %>% 
  select(userName, contents)
```

```
## Warning: `cols` is now required.
## Please use `cols = c()`

## Warning: `cols` is now required.
## Please use `cols = c()`
```

```
## # A tibble: 149 x 2
##    userName contents                                                       
##    <chr>    <chr>                                                          
##  1 june**** 핵심증인빠진체 청문회여는건 어쩔수 없어요 청와대에서 압바해서 법적으로 임명하겠다라고 강행하려고해서 한국당에서 어~
##  2 bnm3**** 괜찮아 다 빠져도 조국 양심 문재인양심 이인영양심. 양심을 팔아 버린 것들 국민이 심판해서 처절한응징할꺼니까. ~
##  3 ljsj**** 황씨  나씨  니들은 바로 내려와라 홍준표한테 물려주고 깊히 반성하며 살아라 이기머꼬?~
##  4 kiwi**** 650원짜리 댓글 알바 특검가자 교활이도 정치하는데 조국이 뭔죄라고 마녀사냥질이냐~
##  5 pgdn**** 경제어럽고힘든데조국은금수저예지딸을완전다특혜우법등등다일가족들이닌분들챙겨주라보너거들돈배채우지말고조국은사기가족든친인척~
##  6 bb87**** 여당이 저렇게 발악하니 어쩔 수 있겠나  국민들은 알겠지...뭐 직금까지 나온 것만으로도 특검가야지...~
##  7 abtr**** "제목 꼬라지하고는...쯧쯧쯧.\n핵심증인?  기준이 뭔데?  누구의 시각에서 핵심증인?"~
##  8 940w**** 나경원 내려와라 이제와서 뭔 청문회야 증인없이 뭐할라구 답답하네 진짜~
##  9 kash**** 나경원도 우파쪽 친중세력임. 싸우는척 쇼하고 결국.. 반중에 찬성하는 사람들은 제 말 알것임~~~
## 10 silf**** "나경원같은 사꾸라가 당대표 한다고\n할때부터\n알아봤다. ㅉㅉ"  
## # ... with 139 more rows
```
…
## 뉴스 본문 가져와서 word(띄어쓰기) 단위로 나누기

```r
# 하나의 뉴스 데이터를 가져와서
getContent("https://news.naver.com/main/read.nhn?mode=LSD&mid=shm&sid1=101&oid=081&aid=0003026718") %>%
  # 본문 컬럼을 word 단위로 쪼갠 결과물을 word라는 컬럼으로 출력
  unnest_tokens(
    input = body,
    output = word
    )
```

```
## # A tibble: 177 x 6
##    url         datetime            edittime            press title    word 
##    <chr>       <dttm>              <dttm>              <chr> <chr>    <chr>
##  1 https://ne~ 2019-09-05 05:08:00 2019-09-05 05:08:00 서울신문~ ‘호주 부동산~ 현지 
##  2 https://ne~ 2019-09-05 05:08:00 2019-09-05 05:08:00 서울신문~ ‘호주 부동산~ 차주가~
##  3 https://ne~ 2019-09-05 05:08:00 2019-09-05 05:08:00 서울신문~ ‘호주 부동산~ 아파트~
##  4 https://ne~ 2019-09-05 05:08:00 2019-09-05 05:08:00 서울신문~ ‘호주 부동산~ 대신 
##  5 https://ne~ 2019-09-05 05:08:00 2019-09-05 05:08:00 서울신문~ ‘호주 부동산~ 토지 
##  6 https://ne~ 2019-09-05 05:08:00 2019-09-05 05:08:00 서울신문~ ‘호주 부동산~ 사들여~
##  7 https://ne~ 2019-09-05 05:08:00 2019-09-05 05:08:00 서울신문~ ‘호주 부동산~ 투자금~
##  8 https://ne~ 2019-09-05 05:08:00 2019-09-05 05:08:00 서울신문~ ‘호주 부동산~ 3264 
##  9 https://ne~ 2019-09-05 05:08:00 2019-09-05 05:08:00 서울신문~ ‘호주 부동산~ 억   
## 10 https://ne~ 2019-09-05 05:08:00 2019-09-05 05:08:00 서울신문~ ‘호주 부동산~ 중   
## # ... with 167 more rows
```
…
```r
library(stringr)
pos_res %>%
  # 우선 `filter()` 와 `str_detect()` 함수를
  # 활용하여 명사(n)만 추출
  filter(str_detect(pos, "/n")) %>% 
  # 형태소 정보를 제거
  mutate(pos_done = str_remove(pos, "/.*$")) -> 
  n_done
n_done
```

```
## # A tibble: 1,773 x 4
## # Groups:   userName [136]
##    userName pos           pos_order pos_done  
##    <chr>    <chr>             <int> <chr>     
##  1 rlaq**** 조국/n+이가/j         1 조국      
##  2 rlaq**** 자한당에도/n          2 자한당에도
##  3 rlaq**** 돈/n+을/j             3 돈        
##  4 rlaq**** 뿌렸나보/n            4 뿌렸나보  
##  5 onda**** 못먹는/n              2 못먹는    
##  6 onda**** 무능한/n              3 무능한    
##  7 onda**** 야당/n                4 야당      
##  8 onda**** 나라/n+를/j           6 나라      
##  9 onda**** 말아먹는/n            7 말아먹는  
## 10 onda**** 토착/n                8 토착      
## # ... with 1,763 more rows
```
…
```
## # A tibble: 2,009 x 2
## # Groups:   userName [136]
##    userName pos_done    
##    <chr>    <chr>       
##  1 rlaq**** 조국        
##  2 taeh**** 정의당은뭐해
##  3 seat**** 아싸~       
##  4 ljsj**** 황씨        
##  5 kiwi**** 650원       
##  6 bb87**** 여당        
##  7 abtr**** 제목        
##  8 940w**** 나경원      
##  9 kash**** 나경원도    
## 10 silf**** 나경원같은  
## # ... with 1,999 more rows
```
…
### 단어 출현 빈도 계산

`count()` 함수는 데이터에서 총 몇 번 나왔는지 세어주는 집계함수. `group_by()`와 함께 사용하여 각 사용자별 단어의 출현 횟수 등을 구할 수 있음.

```r
library(dplyr)
pos_done %>% 
  count(pos_done, sort = T) -> 
  wn
wn
```

```
## # A tibble: 1,831 x 3
## # Groups:   userName [136]
##    userName pos_done     n
##    <chr>    <chr>    <int>
##  1 ysko**** 하다        11
##  2 ysko**** 깨다         6
##  3 bays**** 하다         4
##  4 grea**** 청문회       4
##  5 jwc7**** 하다         4
##  6 phil**** 민주당       4
##  7 phil**** 정의         4
##  8 swod**** 청문회       4
##  9 aghk**** 검찰         3
## 10 aghk**** 사법부       3
## # ... with 1,821 more rows
```
…
```
## # A tibble: 7,932 x 3
##    item1  item2      n
##    <chr>  <chr>  <dbl>
##  1 청문회 조국      21
##  2 증인   청문회    17
##  3 청문회 임명      15
##  4 증인   핵심      12
##  5 조국   장관      11
##  6 장관   법무부    11
##  7 조국   사퇴      11
##  8 조국   국민      10
##  9 조국   임명      10
## 10 조국   법무부     8
## # ... with 7,922 more rows
```
…
```r
pw %>%
  filter(item1 == "우리")
```

```
## # A tibble: 25 x 3
##    item1 item2                        n
##    <chr> <chr>                    <dbl>
##  1 우리  경원                         2
##  2 우리  울렐레까꿍~                  1
##  3 우리  야당대표                     1
##  4 우리  맫겨놨으니ㅉㅉ               1
##  5 우리  평생                         1
##  6 우리  고생한번해보질못했을껀데     1
##  7 우리  우쭈                         1
##  8 우리  사법부                       1
##  9 우리  검찰                         1
## 10 우리  개혁                         1
## # ... with 15 more rows
```
…
```
## Warning in if (lengths(sentence) == 1) {: the condition has length > 1 and
## only the first element will be used
```

```r
tfidf_tar %>%
  bind_tf_idf(pos, id, n) %>%
  arrange(desc(tf_idf))
```

```
## # A tibble: 3,245 x 6
## # Groups:   id [342]
##       id pos        n    tf   idf tf_idf
##    <dbl> <chr>  <int> <dbl> <dbl>  <dbl>
##  1    85 급한       1   1    5.83   5.83
##  2   145 저당       1   1    5.83   5.83
##  3   281 불붙       1   1    5.83   5.83
##  4    91 여기       1   1    4.45   4.45
##  5    21 자한       1   1    3.13   3.13
##  6   183 언론       1   1    3.13   3.13
##  7   159 기사       1   1    2.94   2.94
##  8    16 시켜       1   0.5  5.83   2.92
##  9   111 홍석현     1   0.5  5.83   2.92
## 10   117 놀렸       1   0.5  5.83   2.92
## # ... with 3,235 more rows
```
…
```r
senti_tar %>%
  mutate(score = senti_score(sent),
         magni = senti_magnitude(sent)) %>%
  filter(score != 0)
```

```
## # A tibble: 26 x 3
##    sent                              score magni
##    <chr>                             <dbl> <dbl>
##  1 증인합의 안되면 안하느니만 못하다    -2     1
##  2 이게   제대로 된  나라가?             1     1
##  3 참 더러운 기자다.                    -2     1
##  4 이건 실수가 아니고 고의 란다...      -1     1
##  5 ㅎㅎ.                                 1     1
##  6 청문회 할 자격도 없다 특검해라       -1     1
##  7 ㅎㅎ                                  1     1
##  8 기사 제대로 써라.....                 1     1
##  9 ㅠㅠ  무기력한 야당.                 -2     1
## 10 미친..                               -2     1
## # ... with 16 more rows
```
